{
  "book": [
    {
      "title": "sdad",
      "page": "12",
      "author": "sad",
      "isbn": "sadsad",
      "publish_year": "2020",
      "publisher": "sadsad",
      "review": "sadsadsadas",
      "id": 1
    },
    {
      "title": "sadsad",
      "page": "2131",
      "author": "sdasd",
      "isbn": "sfsafsa",
      "publish_year": "2020",
      "publisher": "dsadsafas",
      "review": "safsadasfasf",
      "id": 2
    },
    {
      "title": "sadsadsa",
      "page": "21321",
      "author": "sadsad",
      "isbn": "asdsadad",
      "publish_year": "2020",
      "publisher": "sadsadasf",
      "review": "asfasfsada",
      "id": 3
    }
  ]
}